{
  "connection": "default",
  "collectionName": "liens",
  "info": {
    "name": "lien",
    "description": ""
  },
  "options": {
    "increments": true,
    "timestamps": true,
    "comment": ""
  },
  "attributes": {
    "titre": {
      "default": "",
      "type": "string"
    },
    "source": {
      "default": "",
      "type": "string"
    },
    "url": {
      "default": "",
      "type": "string"
    },
    "projets": {
      "collection": "projet",
      "via": "liens"
    }
  }
}
