{
  "defaultConnection": "default",
  "connections": {
    "default": {
      "connector": "strapi-hook-bookshelf",
      "settings": {
        "client": "postgres",
        "host": "${process.env.POSTGRESQL_ADDON_HOST || '127.0.0.1'}",
        "port": "${process.env.POSTGRESQL_ADDON_PORT || 27017}",
        "database": "${process.env.POSTGRESQL_ADDON_DB || 'strapi'}",
        "username": "${process.env.POSTGRESQL_ADDON_USER || ''}",
        "password": "${process.env.POSTGRESQL_ADDON_PASSWORD || ''}"
      },
      "options": {}
    }
  }
}
